<?xml version="1.0" encoding="UTF-8" standalone="no"?>
<!-- Created with Inkscape (http://www.inkscape.org/) -->

<svg
   xmlns:dc="http://purl.org/dc/elements/1.1/"
   xmlns:cc="http://creativecommons.org/ns#"
   xmlns:rdf="http://www.w3.org/1999/02/22-rdf-syntax-ns#"
   xmlns:svg="http://www.w3.org/2000/svg"
   xmlns="http://www.w3.org/2000/svg"
   xmlns:sodipodi="http://sodipodi.sourceforge.net/DTD/sodipodi-0.dtd"
   xmlns:inkscape="http://www.inkscape.org/namespaces/inkscape"
   width="13.592548mm"
   height="13.920657mm"
   viewBox="0 0 13.592548 13.920658"
   version="1.1"
   id="svg1412"
   inkscape:version="0.92.5 (2060ec1f9f, 2020-04-08)"
   sodipodi:docname="B_09_2.svg">
  <defs
     id="defs1406" />
  <sodipodi:namedview
     id="base"
     pagecolor="#ffffff"
     bordercolor="#666666"
     borderopacity="1.0"
     inkscape:pageopacity="0.0"
     inkscape:pageshadow="2"
     inkscape:zoom="3.959798"
     inkscape:cx="25.686704"
     inkscape:cy="26.306755"
     inkscape:document-units="mm"
     inkscape:current-layer="layer1"
     showgrid="false"
     fit-margin-top="0"
     fit-margin-left="0"
     fit-margin-right="0"
     fit-margin-bottom="0"
     inkscape:window-width="1916"
     inkscape:window-height="1041"
     inkscape:window-x="0"
     inkscape:window-y="18"
     inkscape:window-maximized="0" />
  <metadata
     id="metadata1409">
    <rdf:RDF>
      <cc:Work
         rdf:about="">
        <dc:format>image/svg+xml</dc:format>
        <dc:type
           rdf:resource="http://purl.org/dc/dcmitype/StillImage" />
        <dc:title></dc:title>
      </cc:Work>
    </rdf:RDF>
  </metadata>
  <g
     inkscape:label="Calque 1"
     inkscape:groupmode="layer"
     id="layer1"
     transform="translate(-32.327334,-93.07736)">
    <path
       style="fill:#000000;stroke-width:0.26458332"
       d="m 39.42934,93.079686 c -0.06577,0.0064 -0.122247,0.02657 -0.164331,0.06149 -0.215502,0.178851 -0.09558,2.199503 0.176217,2.969845 0.08311,0.235574 0.08876,0.340524 0.02015,0.382921 -0.05203,0.03216 -0.498002,0.08381 -0.990637,0.114723 -1.256754,0.07887 -1.899233,0.386837 -1.914095,0.917255 -0.01172,0.418264 0.980154,0.850127 1.948718,0.848011 1.092611,-0.0024 1.142545,0.004 1.091923,0.135908 -0.02579,0.06721 0.03071,0.533911 0.125574,1.037148 0.09486,0.503233 0.198594,1.155453 0.230477,1.449523 0.03188,0.29407 0.105483,0.58194 0.163297,0.63975 0.09536,0.0954 0.26223,0.6458 0.195854,0.64596 -0.01534,4e-5 -0.313759,0.0598 -0.663009,0.13281 -0.34925,0.073 -0.939727,0.1677 -1.312064,0.21033 -0.372339,0.0426 -0.86768,0.13322 -1.100708,0.20153 -2.250773,0.65987 -2.495325,0.7581 -3.653008,1.46555 -0.286138,0.17485 -0.635904,0.38145 -0.777213,0.45888 -0.141309,0.0774 -0.316326,0.25558 -0.389123,0.39636 -0.120425,0.23288 -0.12051,0.26861 0.0026,0.39171 0.191008,0.19101 0.371493,0.10981 1.145667,-0.51521 0.370146,-0.29884 0.813936,-0.63589 0.986503,-0.74931 0.425277,-0.27952 1.743231,-0.77289 2.401404,-0.89866 0.295471,-0.0565 0.578269,-0.13484 0.628902,-0.17415 0.05063,-0.0393 0.39376,-0.11187 0.762227,-0.16174 0.368467,-0.0499 0.784275,-0.12486 0.923975,-0.1664 0.736045,-0.21889 1.340226,-0.34528 1.449524,-0.30334 0.06767,0.026 0.283341,-0.009 0.479557,-0.077 0.499257,-0.17394 0.678034,-0.15925 1.183907,0.0992 0.663068,0.33878 1.467757,1.02413 2.489771,2.12028 l 0.91674,0.98289 -0.0217,0.54983 c -0.01181,0.3022 -0.06484,0.60175 -0.117822,0.6656 -0.07565,0.0911 -0.06842,0.10529 0.03359,0.0661 0.203979,-0.0783 0.325546,-1.23968 0.160713,-1.53479 -0.03035,-0.0543 -0.227985,-0.28292 -0.43925,-0.50797 -0.211264,-0.22506 -0.56004,-0.63786 -0.775146,-0.91726 -0.755855,-0.98177 -1.679561,-1.71079 -2.406571,-1.89911 -0.227217,-0.0589 -0.462899,-0.12187 -0.523483,-0.14004 -0.06058,-0.0182 -0.186778,-0.20648 -0.280603,-0.41859 -0.136709,-0.30905 -0.168468,-0.54906 -0.158646,-1.20768 0.0134,-0.898862 -0.06854,-1.690226 -0.182418,-1.76061 -0.113374,-0.07007 -0.0856,-0.288026 0.05478,-0.428398 0.126223,-0.126222 0.51038,-0.100817 0.79375,0.05271 0.06409,0.03472 0.231484,0.0058 0.372587,-0.06459 0.141102,-0.07039 0.353849,-0.131821 0.472323,-0.136425 0.255854,-0.0099 0.774113,-0.634076 0.774113,-0.932243 0,-0.105048 -0.151133,-0.354867 -0.335897,-0.555004 -0.310515,-0.336346 -0.357049,-0.35842 -0.613916,-0.292489 -0.412212,0.105807 -1.352748,0.05595 -1.487765,-0.07906 -0.125139,-0.125137 -0.148113,-0.241805 -0.264066,-1.33532 -0.07127,-0.672143 -0.263536,-1.2591 -0.412378,-1.259354 -0.03373,-5.8e-5 -0.16927,-0.09318 -0.301274,-0.206705 -0.222054,-0.190971 -0.502382,-0.294103 -0.699699,-0.274918 z m 0.165365,0.396875 c 0.204299,0 0.647505,0.345321 0.647505,0.504362 0,0.119766 -0.0447,0.111577 -0.161747,-0.02946 -0.05393,-0.06498 -0.230382,-0.14337 -0.391707,-0.173633 -0.336288,-0.06309 -0.410658,-0.301273 -0.09405,-0.301273 z m 2.985864,3.155362 c 0.264119,-0.01005 0.340193,0.03182 0.507463,0.1757 0.308161,0.265067 0.311811,0.549325 0.0098,0.806151 -0.198716,0.168992 -0.291941,0.190912 -0.603581,0.144179 -0.298141,-0.04471 -0.378676,-0.02815 -0.422196,0.08526 -0.04372,0.113927 -0.07758,0.120433 -0.180351,0.03514 -0.122874,-0.101976 -0.243466,-0.09832 -1.395263,0.04548 -0.681686,0.0851 -2.318928,0.09573 -2.709396,0.01757 -0.20955,-0.04195 -0.438129,-0.131802 -0.507979,-0.199988 -0.11258,-0.109895 -0.103116,-0.142198 0.08423,-0.284221 0.11624,-0.08812 0.383002,-0.181679 0.592728,-0.20774 1.126075,-0.140002 2.190661,-0.171749 2.780192,-0.0832 0.329371,0.04947 0.394709,0.02867 0.635103,-0.198954 0.227829,-0.21572 0.358468,-0.262083 0.872299,-0.31006 0.140161,-0.0131 0.24889,-0.02199 0.33693,-0.02532 z"
       id="path4433"
       inkscape:connector-curvature="0" />
  </g>
</svg>
