<?xml version="1.0" encoding="UTF-8" standalone="no"?>
<!-- Created with Inkscape (http://www.inkscape.org/) -->

<svg
   xmlns:dc="http://purl.org/dc/elements/1.1/"
   xmlns:cc="http://creativecommons.org/ns#"
   xmlns:rdf="http://www.w3.org/1999/02/22-rdf-syntax-ns#"
   xmlns:svg="http://www.w3.org/2000/svg"
   xmlns="http://www.w3.org/2000/svg"
   xmlns:sodipodi="http://sodipodi.sourceforge.net/DTD/sodipodi-0.dtd"
   xmlns:inkscape="http://www.inkscape.org/namespaces/inkscape"
   width="25.392752mm"
   height="84.780457mm"
   viewBox="0 0 25.39275 84.780467"
   version="1.1"
   id="svg1412"
   inkscape:version="0.92.5 (2060ec1f9f, 2020-04-08)"
   sodipodi:docname="B_14.svg">
  <defs
     id="defs1406" />
  <sodipodi:namedview
     id="base"
     pagecolor="#ffffff"
     bordercolor="#666666"
     borderopacity="1.0"
     inkscape:pageopacity="0.0"
     inkscape:pageshadow="2"
     inkscape:zoom="2.8"
     inkscape:cx="-101.70472"
     inkscape:cy="82.540834"
     inkscape:document-units="mm"
     inkscape:current-layer="layer1"
     showgrid="false"
     fit-margin-top="0"
     fit-margin-left="0"
     fit-margin-right="0"
     fit-margin-bottom="0"
     inkscape:window-width="1916"
     inkscape:window-height="1041"
     inkscape:window-x="0"
     inkscape:window-y="18"
     inkscape:window-maximized="0" />
  <metadata
     id="metadata1409">
    <rdf:RDF>
      <cc:Work
         rdf:about="">
        <dc:format>image/svg+xml</dc:format>
        <dc:type
           rdf:resource="http://purl.org/dc/dcmitype/StillImage" />
        <dc:title></dc:title>
      </cc:Work>
    </rdf:RDF>
  </metadata>
  <g
     inkscape:label="Calque 1"
     inkscape:groupmode="layer"
     id="layer1"
     transform="translate(-54.439068,3.7425983)">
    <path
       style="fill:#000000;stroke-width:0.26458332"
       d="m 64.569708,-3.7407977 c -0.273616,-0.01987 -0.44886,0.1240843 -0.686263,0.4630209 -0.250701,0.3579257 -0.771533,0.7107846 -1.157552,0.7844499 -0.850376,0.1622795 -1.122778,1.52272744 -0.464571,2.3207875 0.417031,0.5056505 0.385389,0.52332731 -0.290423,0.16329819 -0.613201,-0.32667575 -0.797986,-0.30045554 -0.965832,0.13694304 -0.118518,0.30885606 -0.058,0.44859837 0.141076,0.32555921 0.191804,-0.11854127 0.348816,-0.0473472 0.348816,0.15813086 0,0.2054807 -0.302718,0.3736208 -0.672309,0.3736208 -0.584253,0 -0.647817,0.1955773 -0.487826,1.4991344 0.234702,1.9122602 0.85302,2.8918747 2.20245,3.4891928 1.13193,0.5010388 1.419032,1.0087239 0.570508,1.0087239 -0.79728,0 -1.927704,1.7028478 -2.555401,3.8483442 -0.968981,3.312038 -0.771443,7.714014 0.519866,11.571385 0.598149,1.78678 1.248312,3.54818 1.444355,3.91449 0.248338,0.464021 0.233926,0.788755 -0.04702,1.069703 -0.221787,0.221787 -0.440947,0.602993 -0.48731,0.847495 -0.559742,2.952086 -0.840959,3.864311 -1.45624,4.728392 -0.705863,0.991293 -0.91762,1.767319 -0.83561,3.058729 0.03194,0.503026 0.285457,0.616093 1.187009,0.529167 1.092147,-0.105304 1.168836,-0.210982 1.617472,-2.227255 0.259035,-1.164167 0.540721,-2.337803 0.625803,-2.608109 0.431228,-1.370023 0.603361,0.453985 1.027326,10.889258 0.137004,3.372204 0.350338,5.197774 0.628902,5.374865 0.275489,0.175138 0.287454,0.269848 0.03411,0.273367 -0.433927,0.006 -0.356068,1.823339 0.257347,6.002735 0.554448,3.777609 0.483193,6.885786 -0.218591,9.525 -0.718489,2.702036 -0.787831,5.897554 -0.176215,8.113717 0.240967,0.873125 0.428538,2.023891 0.417029,2.557468 -0.01151,0.533578 0.157554,0.970481 0.375687,0.970481 0.423553,0 -0.791753,1.028049 -1.23765,1.046967 -0.14552,0.0062 -0.264583,-0.22978 -0.264583,-0.524518 0,-0.748628 -1.490292,-0.370562 -3.639055,0.92346 -0.934522,0.562787 -1.856902,1.023194 -2.049487,1.023194 -0.192587,0 -0.252902,0.157009 -0.13436,0.348816 0.123592,0.199972 -0.01834,0.258961 -0.33228,0.138491 -0.301895,-0.115848 -0.547254,-0.02529 -0.547254,0.201538 0,0.226248 -0.130672,0.330957 -0.289904,0.232545 -0.364463,-0.225248 -2.53266,1.070509 -2.53266,1.513602 0,0.18071 0.198781,0.408564 0.441314,0.506428 0.242536,0.09786 0.484945,0.190355 0.538986,0.205674 0.05404,0.01532 1.041598,-0.448344 2.1947,-1.030428 1.153099,-0.582083 2.339441,-1.058333 2.636015,-1.058333 0.296576,0 0.538985,-0.165404 0.538985,-0.367938 0,-0.202533 0.198781,-0.328308 0.441314,-0.279569 0.684657,0.137586 2.38125,-0.387437 2.38125,-0.736907 0,-0.172164 0.317328,-0.23015 0.705385,-0.128672 0.388056,0.101481 0.705384,0.02611 0.705384,-0.167434 0,-0.419073 5.492036,-0.336486 6.496243,0.09767 0.476719,0.20611 0.601039,0.171749 0.422715,-0.116787 -0.164825,-0.266687 -0.06294,-0.336061 0.293005,-0.199472 0.300005,0.115122 0.457718,0.35134 0.350366,0.525033 -0.107349,0.173699 0.106275,0.315744 0.474906,0.315744 0.368628,0 1.317681,0.635172 2.10943,1.411282 1.619846,1.587849 1.847951,1.682483 1.847951,0.768945 0,-0.59364 -1.461304,-2.180227 -2.008145,-2.180227 -0.131541,0 -0.570259,-0.310521 -0.974619,-0.690399 -0.880626,-0.827302 -4.538089,-1.743429 -6.065264,-1.519288 -1.262938,0.18536 -1.220261,0.316307 -1.921327,-5.904031 -0.326493,-2.896883 -0.322419,-4.399987 0.01913,-6.896738 0.328586,-2.402038 0.341448,-3.8433 0.05168,-5.820833 -0.579599,-3.955418 -0.710195,-5.680543 -1.265555,-16.739545 -0.107188,-2.134306 -0.261602,-4.951947 -0.343141,-6.261634 -0.08156,-1.309688 -0.08349,-2.38125 -0.0041,-2.38125 0.07935,0 0.38945,0.842835 0.688848,1.872752 0.483719,1.663931 0.717666,1.956332 2.098579,2.627231 1.67807,0.815268 1.814836,0.759695 2.585887,-1.047996 0.224637,-0.526648 0.285634,-1.033174 0.135393,-1.12603 -0.150244,-0.09286 -0.656104,-1.328811 -1.12448,-2.746602 -0.791966,-2.397321 -1.382728,-3.45974 -1.92288,-3.45974 -0.122322,0 -0.130747,0.147529 -0.01913,0.328147 0.111633,0.180623 0.06822,0.411777 -0.09664,0.513662 -0.164856,0.101889 -0.299722,-0.04044 -0.299722,-0.316259 0,-0.275815 0.757282,-1.308309 1.683101,-2.294432 1.916745,-2.041589 2.578963,-3.651256 2.285649,-5.554701 -0.111858,-0.725921 -0.377392,-2.668846 -0.590146,-4.318084 -0.212751,-1.649236 -0.593333,-3.475033 -0.845939,-4.057116 -0.521732,-1.202232 -1.023419,-3.3512181 -0.782381,-3.3512181 0.08803,0 0.775039,0.2105819 1.527038,0.4681908 0.875361,0.2998809 1.811409,0.3707689 2.60191,0.196887 0.679095,-0.1493758 2.089084,-0.3090386 3.13314,-0.354502 1.445027,-0.062921 2.094198,-0.2782861 2.718181,-0.9022688 0.450837,-0.4508368 0.985713,-0.8195892 1.188559,-0.8195892 0.523642,0 0.459189,-1.6535982 -0.07235,-1.8567347 C 79.155757,5.385603 77.210898,5.393393 75.076594,5.495847 68.488247,5.8121299 68.359551,5.8066822 68.5049,5.2183441 68.631217,4.7070236 68.606015,3.6702855 68.399998,0.9074958 68.28157,-0.6807001 67.684951,-1.4809378 66.754104,-1.301672 66.373379,-1.228351 66.156209,-1.320166 66.27093,-1.5057927 66.637232,-2.0984885 66.095162,-3.1287628 65.203294,-3.5351257 64.933295,-3.6581464 64.73391,-3.7288748 64.569741,-3.7407996 Z m -0.135392,1.3544392 c 0.10727,0.0055 0.134088,0.07552 0.05684,0.2005039 -0.118542,0.191807 -0.365192,0.3488161 -0.54777,0.3488161 -0.507444,0 -0.395671,-0.252783 0.21549,-0.487307 0.117729,-0.045178 0.211074,-0.065307 0.275437,-0.062013 z m -0.212908,2.20658539 c 0.203573,-0.014605 0.04199,0.39226067 -0.537951,1.42988511 -0.514419,0.9203954 -0.888235,2.0309575 -0.830958,2.4680677 0.05728,0.4371075 -0.03517,0.7947819 -0.205155,0.7947819 -0.169979,0 -0.347655,-0.6539892 -0.394806,-1.4531393 -0.08695,-1.4735916 0.469609,-2.4684832 1.770432,-3.16466541 0.08525,-0.0456221 0.151461,-0.0715592 0.198438,-0.07493 z m 1.603005,0.23615915 c 0.15794,-0.0193675 0.256315,0.0897043 0.256315,0.35656837 0,0.25514039 0.265139,0.99492069 0.58911,1.64434309 0.421013,0.8439388 0.471673,1.2199514 0.176734,1.3182679 -0.22696,0.075652 -0.412895,0.4364382 -0.412895,0.8014997 0,0.3650615 -0.30683,0.8280268 -0.682128,1.0288773 C 64.969663,5.6243968 64.188512,5.6779273 63.846755,5.3361676 63.383227,4.8726414 63.62463,3.0987689 64.337163,1.7317383 64.842274,0.7626621 65.476941,0.0989866 65.824413,0.05638604 Z M 61.298072,3.9259173 c 0.05633,-0.00558 0.124129,0.012912 0.196887,0.057878 0.194029,0.1199171 0.352435,0.2880572 0.352435,0.3736208 0,0.085564 -0.158406,0.1555459 -0.352435,0.1555459 -0.194027,0 -0.352949,-0.1681401 -0.352949,-0.3736182 0,-0.1284261 0.06218,-0.2041313 0.156062,-0.2134265 z m 15.365989,2.7037109 c 0.194027,0 0.352949,0.1584061 0.352949,0.3524356 0,0.1940269 -0.158922,0.3529489 -0.352949,0.3529489 -0.19403,0 -0.352436,-0.158922 -0.352436,-0.3529489 0,-0.1940295 0.158406,-0.3524356 0.352436,-0.3524356 z M 75.269313,6.808431 c 0.866431,0.00688 0.581125,0.4522338 -0.640787,0.654222 -1.801497,0.2977991 -2.121815,0.2804319 -2.374016,-0.1276403 -0.124325,-0.2011654 0.208005,-0.3656568 0.773081,-0.382405 0.545023,-0.016166 1.354595,-0.069318 1.799373,-0.1183401 0.171413,-0.018891 0.318574,-0.026821 0.442349,-0.02585 z m -8.971545,0.3669004 c 0.395311,-0.024024 1.209373,0.2517192 1.396812,0.5550058 0.105442,0.170606 -0.108765,0.3100599 -0.475938,0.3100599 -0.695161,0 -1.137914,-0.2844614 -1.137914,-0.7312236 0,-0.084791 0.08527,-0.1258306 0.21704,-0.1338421 z m -1.650545,0.049093 1.570964,1.5223887 c 1.043614,1.0113935 1.69174,2.0069469 1.930114,2.9657099 0.508603,2.045658 1.507453,7.960527 1.540473,9.121923 0.04128,1.451769 -1.077323,3.462077 -2.646865,4.756818 -0.764432,0.63059 -1.491901,1.127874 -1.61644,1.105358 -1.530284,-0.276564 -2.519741,-0.831456 -2.519741,-1.413349 0,-0.170272 0.238125,-0.309541 0.529166,-0.309541 0.291042,0 0.529167,-0.158406 0.529167,-0.352436 0,-0.194027 -0.220954,-0.352949 -0.490926,-0.352949 -0.611738,0 -1.621555,-2.451042 -1.638144,-3.975984 -0.0068,-0.626663 -0.230185,-2.156145 -0.49661,-3.398761 -0.292764,-1.365486 -0.367318,-2.551446 -0.188103,-2.998266 0.163092,-0.406623 0.563502,-1.639761 0.889352,-2.739885 0.349266,-1.1791744 1.005835,-2.396557 1.599901,-2.9657102 z M 63.876209,27.448515 c 0.639588,0.01307 1.152239,0.626655 0.954466,1.14205 -0.118587,0.309033 -0.441227,0.648547 -0.71727,0.754475 -0.364543,0.139888 -0.50178,-0.09355 -0.50178,-0.854212 0,-0.575996 0.119063,-1.045144 0.264584,-1.042313 z m 2.658753,2.95951 c 0.09532,-0.0123 0.316764,0.45594 0.512114,1.092438 0.20837,0.678931 0.247785,1.234551 0.08733,1.234551 -0.315087,0 -0.865881,-2.069341 -0.617017,-2.318205 0.0052,-0.0052 0.01122,-0.008 0.01757,-0.0088 z"
       id="path5181"
       inkscape:connector-curvature="0"
       sodipodi:nodetypes="ccsccccssscscscccscsscsccssccscscsccscsccssscscsccccsssscsscsccscssccsccsccssscscssccccscccscscscscsccccsccsccccccssscsssssccccccccsscccscccsssscccccccccscccssc" />
  </g>
</svg>
