{
  "Aiguilles_Banc": {
    "locations": "Aiguilles_Banc",
    "value": "Banc des Aiguilles"
  },
  "Aiguilles_Wight": {
    "locations": "Aiguilles_Wight",
    "value": "Aiguilles de Wight"
  },
  "Aiguillons": {
    "locations": "Aiguillons",
    "value": "Les Aiguillons"
  },
  "Ambleteuse_Baie": {
    "locations": "Ambleteuse_Baie",
    "value": "Baie d’Ambleteuse"
  },
  "Ancresse_Dolmen": {
    "locations": "Ancresse_Dolmen",
    "value": "dolmen de l’Ancresse"
  },
  "Ancresse": {
    "locations": "Ancresse",
    "value": "L’Ancresse"
  },
  "Anderlo": {
    "locations": "Anderlo Anderlo_Grand Anderlo_Petit Anderlo_Vieux",
    "value": "Anderlo"
  },
  "Anderlo_Grand": {
    "locations": "Anderlo_Grand",
    "value": "Anderlo > Petit Anderlo"
  },
  "Anderlo_Petit": {
    "locations": "Anderlo_Petit",
    "value": "Anderlo > Petit Anderlo"
  },
  "Anderlo_Vieux": {
    "locations": "Anderlo_Vieux",
    "value": "Anderlo > Vieux Anderlo"
  },
  "Angleterre": {
    "locations": "Angleterre",
    "value": "Angleterre"
  },
  "Angullieres": {
    "locations": "Angullieres",
    "value": "Les Angullières"
  },
  "Archipel": {
    "locations": "Archipel",
    "value": "Archipel de la Manche"
  },
  "Arculons": {
    "locations": "Arculons",
    "value": "Les Arculons"
  },
  "Astigarraga": {
    "locations": "Astigarraga",
    "value": "Astigarraga"
  },
  "Aurigny": {
    "locations": "Aurigny",
    "value": "Aurigny"
  },
  "Azette_Greve": {
    "locations": "Azette_Greve",
    "value": "Grève d’Azette"
  },
  "Balise": {
    "locations": "Balise B_01 B_02 B_03 B_04 B_05 B_06 B_07 B_08 B_09 B_10 B_11 B_12 B_13 B_14",
    "value": "Toutes les balises"
  },
  "B_07": {
    "locations": "B_07",
    "value": "Balise > Balise La Corbette"
  },
  "B_10": {
    "locations": "B_10",
    "value": "Balise > Balise La Platte"
  },
  "B_06": {
    "locations": "B_06",
    "value": "Balise > Balise La Rousse"
  },
  "B_04": {
    "locations": "B_04",
    "value": "Balise > Balise La Sardrette"
  },
  "B_01": {
    "locations": "B_01",
    "value": "Balise > Balise Le Creux"
  },
  "B_09": {
    "locations": "B_09",
    "value": "Balise > Balise Le Goubeau"
  },
  "B_12": {
    "locations": "B_12",
    "value": "Balise > Balise Le Moulinet"
  },
  "B_11": {
    "locations": "B_11",
    "value": "Balise > Balise Les Barbées"
  },
  "B_13": {
    "locations": "B_13",
    "value": "Balise > Balise Les Plattes Fougères"
  },
  "B_03": {
    "locations": "B_03",
    "value": "Balise > Balise Les Trémies"
  },
  "B_08": {
    "locations": "B_08",
    "value": "Balise > Balise Longue-Pierre"
  },
  "B_02": {
    "locations": "B_02",
    "value": "Balise > Balise L’Alligande"
  },
  "B_05": {
    "locations": "B_05",
    "value": "Balise > Balise L’Anfré"
  },
  "B_14": {
    "locations": "B_14",
    "value": "Balise > Balise Saint-Sampson"
  },
  "Marquis_Banc": {
    "locations": "Marquis_Banc",
    "value": "Banc-Marquis"
  },
  "Banques_Pointe": {
    "locations": "Banques_Pointe",
    "value": "La Pointe des Banques"
  },
  "Banquetiers": {
    "locations": "Banquetiers",
    "value": "Les Banquetiers"
  },
  "Barneville": {
    "locations": "Barneville",
    "value": "Barneville"
  },
  "Basses_Maisons": {
    "locations": "Basses_Maisons",
    "value": "Les Basses Maisons"
  },
  "Beaulieu_Cote": {
    "locations": "Beaulieu_Cote",
    "value": "Côte de Beaulieu"
  },
  "Belgique": {
    "locations": "Belgique",
    "value": "Belgique"
  },
  "Bilbao": {
    "locations": "Bilbao",
    "value": "Bilbao"
  },
  "Binic": {
    "locations": "Binic",
    "value": "Binic"
  },
  "Boisrose_Falaise": {
    "locations": "Boisrose_Falaise",
    "value": "Falaise de Boisrosé"
  },
  "Bordage_Carrefour": {
    "locations": "Bordage_Carrefour",
    "value": "Carrefour du Bordage"
  },
  "Boue_Blondel": {
    "locations": "Boue_Blondel",
    "value": "La Boue-Blondel"
  },
  "Boue_Corneille": {
    "locations": "Boue_Corneille",
    "value": "La Boue-Corneille"
  },
  "Boue_Jardin": {
    "locations": "Boue_Jardin",
    "value": "La Boue du Jardin"
  },
  "Boue_le_Mouet": {
    "locations": "Boue_le_Mouet",
    "value": "La Boue le Mouet"
  },
  "Boues_Fosse": {
    "locations": "Boues_Fosse",
    "value": "Les Boues de la Fosse"
  },
  "Boue_Vason": {
    "locations": "Boue_Vason",
    "value": "Boue Vason ou Boue Vazon"
  },
  "Boulay_Bay": {
    "locations": "Boulay_Bay",
    "value": "Boulay-Bay"
  },
  "Bourdeaux": {
    "locations": "Bourdeaux",
    "value": "Le Bourdeaux (Guernesey)"
  },
  "Bourg_d_Ault": {
    "locations": "Bourg_d_Ault",
    "value": "Bourg-d’Ault ou Bourg d’eau"
  },
  "Boutiques_Serk": {
    "locations": "Boutiques_Serk",
    "value": "Les Boutiques (Serk)"
  },
  "Braye_du_Valle": {
    "locations": "Braye_du_Valle",
    "value": "La Braye du Valle (Guernesey)"
  },
  "Brecqhou": {
    "locations": "Brecqhou",
    "value": "Brecqhou"
  },
  "Brehat": {
    "locations": "Brehat",
    "value": "Bréhat"
  },
  "Brest": {
    "locations": "Brest",
    "value": "Brest"
  },
  "Bretagne": {
    "locations": "Bretagne",
    "value": "Bretagne"
  },
  "Briquebec": {
    "locations": "Briquebec",
    "value": "Briquebec"
  },
  "Bu_de_la_rue": {
    "locations": "Bu_de_la_rue",
    "value": "Bû de la Rue"
  },
  "Bur_Hou": {
    "locations": "Bur_Hou",
    "value": "Bur-Hou"
  },
  "Calvados_Banc": {
    "locations": "Calvados_Banc",
    "value": "Le Banc du Calvados"
  },
  "Calvados": {
    "locations": "Calvados",
    "value": "Calvados"
  },
  "Canard": {
    "locations": "Canard",
    "value": "Le Canard"
  },
  "Cancale": {
    "locations": "Cancale",
    "value": "Cancale"
  },
  "Brehant_Cap": {
    "locations": "Brehant_Cap",
    "value": "Cap Bréhant (île de Bréhat)"
  },
  "Dicart_Cap": {
    "locations": "Dicart_Cap",
    "value": "Cap Dicart (ou Pointe d’Icare - Guernesey)"
  },
  "Frehel": {
    "locations": "Frehel",
    "value": "Cap Fréhel"
  },
  "Carteret": {
    "locations": "Carteret",
    "value": "Carteret"
  },
  "Casquets": {
    "locations": "Casquets",
    "value": "Les Casquets"
  },
  "Catel": {
    "locations": "Catel",
    "value": "Le Catel ou Le Câtel"
  },
  "Catiau_Roque": {
    "locations": "Catiau_Roque",
    "value": "La Catiau-Roque"
  },
  "Cat_Rock": {
    "locations": "Cat_Rock",
    "value": "Cat-Rock"
  },
  "Cesambre": {
    "locations": "Cesambre",
    "value": "Césambre"
  },
  "Chaise_Moine": {
    "locations": "Chaise_Moine",
    "value": "La Chaise-au-Moine (Aurigny)"
  },
  "Chaise_Gild_Holm_Ur": {
    "locations": "Chaise_Gild_Holm_Ur",
    "value": "Chaise Gild-Holm-‘Ur (Guernesey)"
  },
  "Champ_Fleury": {
    "locations": "Champ_Fleury",
    "value": "Champ Fleury"
  },
  "Charente": {
    "locations": "Charente",
    "value": "Charente"
  },
  "Chemin_SPP_SS": {
    "locations": "Chemin_SPP_SS",
    "value": "Chemin de Saint-Pierre-Port à Saint-Sampson"
  },
  "Cherbourg": {
    "locations": "Cherbourg",
    "value": "Cherbourg"
  },
  "Chevres_Ile": {
    "locations": "Chevres_Ile",
    "value": "Île aux Chèvres"
  },
  "Chousey": {
    "locations": "Chousey",
    "value": "Chousey"
  },
  "Clos-Landes": {
    "locations": "Clos-Landes",
    "value": "Clos-Landès"
  },
  "Clotures_Route": {
    "locations": "Clotures_Route",
    "value": "Route des Clôtures (Guernesey)"
  },
  "Cobo_Bay": {
    "locations": "Cobo_Bay",
    "value": "Cobo-Bay"
  },
  "Colette": {
    "locations": "Colette",
    "value": "La Colette (Jersey)"
  },
  "Colombelle": {
    "locations": "Colombelle",
    "value": "Colombelle (Guernesey)"
  },
  "Doyle_Colonne": {
    "locations": "Doyle_Colonne",
    "value": "Colonne Doyle (Guernesey)"
  },
  "Conchee": {
    "locations": "Conchee",
    "value": "La Conchée"
  },
  "Corbiere": {
    "locations": "Corbiere",
    "value": "La Corbière"
  },
  "Corne_Bete": {
    "locations": "Corne_Bete",
    "value": "La Corne de la Bête (Chaise Gild-Holm-‘Ur)"
  },
  "Cornet_Chateau": {
    "locations": "Cornet_Chateau",
    "value": "Château Cornet (Guernesey)"
  },
  "Cotillon_Pipet": {
    "locations": "Cotillon_Pipet",
    "value": "Le Cotillon-Pipet (Guernesey)"
  },
  "Cour_du_Samedi": {
    "locations": "Cour_du_Samedi",
    "value": "Cour du Samedi (Jersey)"
  },
  "Courseulle": {
    "locations": "Courseulle",
    "value": "Courseulle"
  },
  "Coutances": {
    "locations": "Coutances",
    "value": "Coutances"
  },
  "Creux_Maille": {
    "locations": "Creux_Maille",
    "value": "Creux-Maillé (Guernesey)"
  },
  "Crocq-Point": {
    "locations": "Crocq-Point",
    "value": "Le Crocq-Point (Guernesey)"
  },
  "Croix_Baillif": {
    "locations": "Croix_Baillif",
    "value": "Croix au Baillif (Guernesey)"
  },
  "Cromlech_Jersey": {
    "locations": "Cromlech_Jersey",
    "value": "Cromlech (Jersey)"
  },
  "Cromlech": {
    "locations": "Cromlech",
    "value": "Cromlech"
  },
  "Deree": {
    "locations": "Deree",
    "value": "La Dérée"
  },
  "Deroute": {
    "locations": "Deroute",
    "value": "La Déroute (entre Guernesey et Jersey)"
  },
  "Deux_Brayes": {
    "locations": "Deux_Brayes Braye_Grande Braye_Petite",
    "value": "Les deux Brayes"
  },
  "Braye_Grande": {
    "locations": "Braye_Grande",
    "value": "Deux Brayes (Les)  > Grande Braye"
  },
  "Braye_Petite": {
    "locations": "Braye_Petite",
    "value": "Deux Brayes (Les)  > Petite Braye"
  },
  "Grunes": {
    "locations": "Grunes",
    "value": "Les deux Grunes (Guernesey)"
  },
  "Dieppe": {
    "locations": "Dieppe",
    "value": "Dieppe"
  },
  "Digoville": {
    "locations": "Digoville",
    "value": "Digoville"
  },
  "Dinan": {
    "locations": "Dinan",
    "value": "Dinan"
  },
  "Dirouilles": {
    "locations": "Dirouilles",
    "value": "Les Dirouilles"
  },
  "Dolmen": {
    "locations": "Dolmen",
    "value": "Dolmen"
  },
  "Douvres": {
    "locations": "Douvres",
    "value": "Douvres"
  },
  "Doyle_Point": {
    "locations": "Doyle_Point",
    "value": "Doyle Point (Guernesey)"
  },
  "Doyle_Road": {
    "locations": "Doyle_Road",
    "value": "Doyle Road (Guernesey)"
  },
  "Dunkerque": {
    "locations": "Dunkerque",
    "value": "Dunkerque"
  },
  "Ecossaise": {
    "locations": "Ecossaise",
    "value": "L'Écossaise"
  },
  "Ecrehou": {
    "locations": "Ecrehou",
    "value": "Ecréhou"
  },
  "Eldad_Chapelle": {
    "locations": "Eldad_Chapelle",
    "value": "Chapelle Eldad (Saint-Pierre-Port)"
  },
  "Elisabeth_Chateau": {
    "locations": "Elisabeth_Chateau",
    "value": "Château Elisabeth (Jersey)"
  },
  "Epine": {
    "locations": "Epine",
    "value": "L’Épine (Guernsesey)"
  },
  "Equerrier": {
    "locations": "Equerrier",
    "value": "L’Équerrier"
  },
  "Ermitage": {
    "locations": "Ermitage",
    "value": "La Tour de l’Ermitage (Jersey)"
  },
  "Espagne": {
    "locations": "Espagne",
    "value": "Espagne"
  },
  "Essex_Castle": {
    "locations": "Essex_Castle",
    "value": "Essex Castle (Aurigny)"
  },
  "Etables": {
    "locations": "Etables",
    "value": "Etables"
  },
  "Etat": {
    "locations": "Etat Etat-Gros Etat_Petit",
    "value": "Gros-État et Petit-État"
  },
  "Etat-Gros": {
    "locations": "Etat-Gros",
    "value": "État > Gros-État"
  },
  "Etat_Petit": {
    "locations": "Etat_Petit",
    "value": "État > Petit-État"
  },
  "Etretat": {
    "locations": "Etretat",
    "value": "Etretat"
  },
  "Europe": {
    "locations": "Europe",
    "value": "Europe"
  },
  "Exeter": {
    "locations": "Exeter",
    "value": "Exeter"
  },
  "Fermain_Bay": {
    "locations": "Fermain_Bay",
    "value": "Fermain-Bay (Guernesey)"
  },
  "Finistere": {
    "locations": "Finistere",
    "value": "Finistère"
  },
  "Flamanville_Cap": {
    "locations": "Flamanville_Cap",
    "value": "Cap Flamanville"
  },
  "Flandre": {
    "locations": "Flandre",
    "value": "Flandre"
  },
  "Fontenelle_Demie": {
    "locations": "Fontenelle_Demie",
    "value": "La Demie de Fontenelle (Guernesey)"
  },
  "Fontenelle_Pointe": {
    "locations": "Fontenelle_Pointe",
    "value": "Pointe Fontenelle"
  },
  "Foret": {
    "locations": "Foret",
    "value": "La Forêt"
  },
  "France": {
    "locations": "France",
    "value": "France"
  },
  "Frouquie_Passage": {
    "locations": "Frouquie_Passage",
    "value": "Passage de la Frouquie"
  },
  "Fruquiers": {
    "locations": "Fruquiers",
    "value": "Les Fruquiers (Guernesey)"
  },
  "George_Fort": {
    "locations": "George_Fort",
    "value": "Fort George (Guernesey)"
  },
  "Godaines": {
    "locations": "Godaines",
    "value": "Les Godaines (Guernesey)"
  },
  "Gorges": {
    "locations": "Gorges",
    "value": "Gorges"
  },
  "Gosselin_Havre": {
    "locations": "Gosselin_Havre",
    "value": "Le Havre Gosselin (Serk)"
  },
  "GB": {
    "locations": "GB",
    "value": "Grande Bretagne"
  },
  "Grand_Etacre": {
    "locations": "Grand_Etacre",
    "value": "Le Grand-Etacré (Guernesey)"
  },
  "Grand_Mielles": {
    "locations": "Grand_Mielles",
    "value": "Grand Mielles (Guernesey)"
  },
  "Grand_Roque": {
    "locations": "Grand_Roque",
    "value": "Grand-Roque Point"
  },
  "Grand_V": {
    "locations": "Grand_V",
    "value": "Grand V (Isigny)"
  },
  "Granville": {
    "locations": "Granville",
    "value": "Granville"
  },
  "Greenwich": {
    "locations": "Greenwich",
    "value": "Greenwich"
  },
  "Grelets": {
    "locations": "Grelets",
    "value": "Les Grelets"
  },
  "Gros_Nez": {
    "locations": "Gros_Nez",
    "value": "Gros-Nez"
  },
  "Grune_Pierre": {
    "locations": "Grune_Pierre",
    "value": "Grune Pierre"
  },
  "Grunes_Ouest": {
    "locations": "Grunes_Ouest",
    "value": "Les Grunes de l’Ouest (Guernesey)"
  },
  "Grunettes": {
    "locations": "Grunettes",
    "value": "Les Grunettes (Guernesey)"
  },
  "Guernesey": {
    "locations": "Guernesey",
    "value": "Guernesey"
  },
  "Hagot": {
    "locations": "Hagot",
    "value": "Hagot"
  },
  "Hamel": {
    "locations": "Hamel",
    "value": "Le Hamel (L’Épine-Guernesey)"
  },
  "Hanois": {
    "locations": "Hanois Hanois_13_Rochers Hanois_Grand Hanois_Light_Red Hanois_Mauve Hanois_Petit",
    "value": "Les Hanois (ensemble de l’îlot)"
  },
  "Hanois_13_Rochers": {
    "locations": "Hanois_13_Rochers",
    "value": "Hanois (Les) > 13 Rochers"
  },
  "Hanois_Grand": {
    "locations": "Hanois_Grand",
    "value": "Hanois (Les) > Le Grand Hanois"
  },
  "Hanois_Petit": {
    "locations": "Hanois_Petit",
    "value": "Hanois (Les) > Le Petit Hanois"
  },
  "Hanois_Light_Red": {
    "locations": "Hanois_Light_Red",
    "value": "Hanois (Les) > Light Red"
  },
  "Hanois_Mauve": {
    "locations": "Hanois_Mauve",
    "value": "Hanois (Les) > La Mauve"
  },
  "Hardent": {
    "locations": "Hardent",
    "value": "La Hardent (entre les Minquiers et Chausey)"
  },
  "Harlem": {
    "locations": "Harlem",
    "value": "Harlem"
  },
  "Haute_Canee": {
    "locations": "Haute_Canee",
    "value": "La Haute Canée"
  },
  "Hautes_Fourquies": {
    "locations": "Hautes_Fourquies",
    "value": "Hautes-Fourquies (Guernesey)"
  },
  "Havelet": {
    "locations": "Havelet",
    "value": "Le Havelet (Saint-Pierre-Port)"
  },
  "Herm": {
    "locations": "Herm",
    "value": "Île d’Herm"
  },
  "Hernani": {
    "locations": "Hernani",
    "value": "Hernani"
  },
  "Herouee": {
    "locations": "Herouee",
    "value": "Hérouée (Guernesey)"
  },
  "Hollande": {
    "locations": "Hollande",
    "value": "Hollande"
  },
  "Hougue_Cap": {
    "locations": "Hougue_Cap",
    "value": "Cap de La Hougue"
  },
  "Hougue_Bye": {
    "locations": "Hougue_Bye",
    "value": "Hougue-Bye"
  },
  "Hougue_des_Pommiers": {
    "locations": "Hougue_des_Pommiers",
    "value": "La Hougue des Pommiers"
  },
  "Hougue_la_Perre": {
    "locations": "Hougue_la_Perre",
    "value": "La Hougue la Perre (Guernesey)"
  },
  "Houmet": {
    "locations": "Houmet",
    "value": "Le Houmet (Guernesey)"
  },
  "Houmet_Benet": {
    "locations": "Houmet_Benet",
    "value": "Houmet Benet (Guernesey)"
  },
  "Houmet_Paradis": {
    "locations": "Houmet_Paradis",
    "value": "Houmet Paradis (Guernesey)"
  },
  "Houmets": {
    "locations": "Houmets",
    "value": "Les Houmets"
  },
  "Hubies_Route": {
    "locations": "Hubies_Route",
    "value": "Route des Hubies (Guernesey)"
  },
  "Huriaux": {
    "locations": "Huriaux",
    "value": "Les Huriaux (courtils des - Guernesey)"
  },
  "Groix": {
    "locations": "Groix",
    "value": "orthographié Groie dans le texte"
  },
  "Wight": {
    "locations": "Wight",
    "value": "Ile de Wight"
  },
  "Ingouville": {
    "locations": "Ingouville",
    "value": "Ingouville"
  },
  "Irlande": {
    "locations": "Irlande",
    "value": "Irlande"
  },
  "Isigny": {
    "locations": "Isigny",
    "value": "Isigny"
  },
  "Jennerotte": {
    "locations": "Jennerotte",
    "value": "La Jennerotte (Guernesey)"
  },
  "Jerbourg": {
    "locations": "Jerbourg",
    "value": "Jerbourg (Guernesey)"
  },
  "Jersey": {
    "locations": "Jersey",
    "value": "Jersey"
  },
  "Jet_Hou": {
    "locations": "Jet_Hou",
    "value": "Jet-Hou"
  },
  "Manche": {
    "locations": "Manche",
    "value": "La Manche"
  },
  "Moulrette": {
    "locations": "Moulrette",
    "value": "La Moulrette"
  },
  "La_Rochelle": {
    "locations": "La_Rochelle",
    "value": "La Rochelle"
  },
  "Lemarchand_Fort": {
    "locations": "Lemarchand_Fort",
    "value": "Fort Lemarchand ou Le Marchant"
  },
  "Leree_Point": {
    "locations": "Leree_Point",
    "value": "Lérée-Point (Guernesey)"
  },
  "Lierre_Chateau": {
    "locations": "Lierre_Chateau",
    "value": "Château de Lierre (Guernesey)"
  },
  "Li_Hou_Detroit": {
    "locations": "Li_Hou_Detroit",
    "value": "Détroit de Li-Hou (Guernesey)"
  },
  "Li_Hou": {
    "locations": "Li_Hou",
    "value": "Li-Hou (Guernesey)"
  },
  "Li_Houmet": {
    "locations": "Li_Houmet",
    "value": "Li-Houmet (Guernesey)"
  },
  "Londres": {
    "locations": "Londres",
    "value": "Londres"
  },
  "Lorient": {
    "locations": "Lorient",
    "value": "Lorient"
  },
  "Maisons": {
    "locations": "Maisons",
    "value": "Les Maisons"
  },
  "Maison_visionnee": {
    "locations": "Maison_visionnee",
    "value": "Maison visionnée (Plainmont - Guernesey)"
  },
  "Maitre_Ile": {
    "locations": "Maitre_Ile",
    "value": "Le Maître-Île"
  },
  "Mare_Pelee": {
    "locations": "Mare_Pelee",
    "value": "La Mare Pelée"
  },
  "Martello_2": {
    "locations": "Martello_2",
    "value": "Deuxième tour Martello"
  },
  "Martello_1": {
    "locations": "Martello_1",
    "value": "Première Tour Martello"
  },
  "Martello": {
    "locations": "Martello",
    "value": "Tour Martello"
  },
  "Martello_6": {
    "locations": "Martello_6",
    "value": "Sixième tour Martello"
  },
  "Martello_7": {
    "locations": "Martello_7",
    "value": "Septième tour Martello"
  },
  "Mauvais_Cheval": {
    "locations": "Mauvais_Cheval",
    "value": "Le Mauvais Cheval (entre Boulay-Bay et Barneville)"
  },
  "Merquel": {
    "locations": "Merquel",
    "value": "Entrée de Merquel"
  },
  "Messellettes": {
    "locations": "Messellettes",
    "value": "Les Messellettes (Guernesey)"
  },
  "Minquiers": {
    "locations": "Minquiers",
    "value": "Les Minquiers"
  },
  "Moie": {
    "locations": "Moie",
    "value": "La Moie (ou Port au quatrième étage - Guernesey)"
  },
  "Moines": {
    "locations": "Moines",
    "value": "Les Moines"
  },
  "Mon_Plaisir": {
    "locations": "Mon_Plaisir",
    "value": "Monplaisir (Ferme- Saint-Jacques -Guernesey)"
  },
  "Mont_Pendus": {
    "locations": "Mont_Pendus",
    "value": "Mont-aux-Pendus (Jersey)"
  },
  "Crevel_Mont_Est": {
    "locations": "Crevel_Mont_Est",
    "value": "Mont Crevel de l'Est"
  },
  "Crevel_Mont_Ouest": {
    "locations": "Crevel_Mont_Ouest",
    "value": "Mont Crevel de l'Ouest"
  },
  "Montorgueil": {
    "locations": "Montorgueil",
    "value": "Montorgueil (Jersey)"
  },
  "Mont_Saint_Michel": {
    "locations": "Mont_Saint_Michel",
    "value": "Mont-Saint-Michel"
  },
  "Mortes_Femmes": {
    "locations": "Mortes_Femmes",
    "value": "Les Mortes-Femmes"
  },
  "Mouliere": {
    "locations": "Mouliere",
    "value": "La Moulière"
  },
  "Moulin_Huet": {
    "locations": "Moulin_Huet",
    "value": "Moulin Huet"
  },
  "Nantes": {
    "locations": "Nantes",
    "value": "édit de Nantes"
  },
  "Nipple_Rock": {
    "locations": "Nipple_Rock",
    "value": "Nipple Rock"
  },
  "Noirmont": {
    "locations": "Noirmont",
    "value": "Noirmont"
  },
  "Normandie": {
    "locations": "Normandie",
    "value": "Normandie"
  },
  "Omptolle": {
    "locations": "Omptolle",
    "value": "Omptolle (Guernesey)"
  },
  "Ortach": {
    "locations": "Ortach",
    "value": "Rocher Ortach"
  },
  "Ostende": {
    "locations": "Ostende",
    "value": "Ostende"
  },
  "Oyarzun": {
    "locations": "Oyarzun",
    "value": "Oyarzun"
  },
  "Paimpol": {
    "locations": "Paimpol",
    "value": "Paimpol"
  },
  "Paris": {
    "locations": "Paris",
    "value": "Paris"
  },
  "Pasages": {
    "locations": "Pasages",
    "value": "Pasages"
  },
  "Boue_Passage": {
    "locations": "Boue_Passage",
    "value": "Le Passage de la Boue"
  },
  "Pater_Noster": {
    "locations": "Pater_Noster",
    "value": "Pater-Noster"
  },
  "Pecheresse": {
    "locations": "Pecheresse",
    "value": "La Pécheresse (Guernesey)"
  },
  "Pecheries_Bay": {
    "locations": "Pecheries_Bay",
    "value": "Pêcheries Bay"
  },
  "Percee": {
    "locations": "Percee",
    "value": "La Percée (Guernesey)"
  },
  "Perrelle_Bay": {
    "locations": "Perrelle_Bay",
    "value": "Perrelle-Bay (Guernesey)"
  },
  "Petit_Bo": {
    "locations": "Petit_Bo",
    "value": "Petit Bô (Guernesey)"
  },
  "Pezeris": {
    "locations": "Pezeris",
    "value": "Pezeris (ou Pèseries - Guernesey)"
  },
  "Trois_Pierres": {
    "locations": "Trois_Pierres",
    "value": "Trois pierres arrangées en escalier"
  },
  "Pierres_fees": {
    "locations": "Pierres_fees",
    "value": "Pierres fées"
  },
  "Pier_Road": {
    "locations": "Pier_Road",
    "value": "Pier-Road (Saint-Hélier – Jersey)"
  },
  "Pinacle": {
    "locations": "Pinacle",
    "value": "Le Pinacle (Jersey)"
  },
  "Pir-Hou": {
    "locations": "Pir-Hou",
    "value": "Pir-Hou"
  },
  "Plainmont": {
    "locations": "Plainmont",
    "value": "Plainmont (parfois Pleinmont Guernesey)"
  },
  "Plaquiere": {
    "locations": "Plaquiere",
    "value": "La Plaquière"
  },
  "Platon": {
    "locations": "Platon",
    "value": "Le Platon (Guernesey)"
  },
  "Plemont_Caves": {
    "locations": "Plemont_Caves",
    "value": "Caves de Plémont (Jersey)"
  },
  "Plemont": {
    "locations": "Plemont",
    "value": "Plémont (Jersey)"
  },
  "Plouha": {
    "locations": "Plouha",
    "value": "Plouha"
  },
  "Sillon": {
    "locations": "Sillon",
    "value": "Pointe du Sillon-Sillon de Talbert"
  },
  "Pontorson": {
    "locations": "Pontorson",
    "value": "Pontorson"
  },
  "Portbail": {
    "locations": "Portbail",
    "value": "Portbail"
  },
  "Port_Enfer": {
    "locations": "Port_Enfer",
    "value": "Port-Enfer (Guernesey)"
  },
  "Port_Grat": {
    "locations": "Port_Grat",
    "value": "Port-Grat (Guernesey)"
  },
  "Portland": {
    "locations": "Portland",
    "value": "Portland"
  },
  "Portrieux": {
    "locations": "Portrieux",
    "value": "Portrieux"
  },
  "Portsmouth": {
    "locations": "Portsmouth",
    "value": "Portsmouth"
  },
  "Port_Soif": {
    "locations": "Port_Soif",
    "value": "Port-Soif (Guernesey)"
  },
  "Preel": {
    "locations": "Preel",
    "value": "Bas-fonds de Préel"
  },
  "Pyrenees": {
    "locations": "Pyrenees",
    "value": "Pyrénées"
  },
  "Quenon": {
    "locations": "Quenon",
    "value": "Les roches du Quenon (Guernesey)"
  },
  "Quimperle": {
    "locations": "Quimperle",
    "value": "Quimperlé"
  },
  "Ras_Ile": {
    "locations": "Ras_Ile",
    "value": "Île des Ras"
  },
  "Rats_Ile": {
    "locations": "Rats_Ile",
    "value": "Île des Rats"
  },
  "Rennes": {
    "locations": "Rennes",
    "value": "Rennes"
  },
  "Rochefort": {
    "locations": "Rochefort",
    "value": "Rochefort"
  },
  "Rocquaine_Chateau": {
    "locations": "Rocquaine_Chateau",
    "value": "Château Rocquaine (Guernesey)"
  },
  "Rocquaine": {
    "locations": "Rocquaine",
    "value": "La Rocquaine (Guernesey)"
  },
  "Ronesse": {
    "locations": "Ronesse",
    "value": "La Ronesse"
  },
  "Roque_au_Diable": {
    "locations": "Roque_au_Diable",
    "value": "La Roque-au-Diable (Guernesey)"
  },
  "Roque_Crespel": {
    "locations": "Roque_Crespel",
    "value": "La Roque Crespel (Guernesey)"
  },
  "Roque_Herpin": {
    "locations": "Roque_Herpin",
    "value": "La Roque Herpin (Guernesey)"
  },
  "Roque_Noire": {
    "locations": "Roque_Noire",
    "value": "Roque Noire"
  },
  "Roque_Nord": {
    "locations": "Roque_Nord",
    "value": "La Roque-Nord (Guernesey)"
  },
  "Roque_qui_chante": {
    "locations": "Roque_qui_chante",
    "value": "La Roque qui chante (Guernesey)"
  },
  "Roque_Ronde": {
    "locations": "Roque_Ronde",
    "value": "La Roque Ronde (Guernesey)"
  },
  "Roque_Rouge": {
    "locations": "Roque_Rouge",
    "value": "La Roque Rouge (Guernesey)"
  },
  "Rouen": {
    "locations": "Rouen",
    "value": "Rouen"
  },
  "Rouge_Bouillon": {
    "locations": "Rouge_Bouillon",
    "value": "Rouge-Bouillon (Jersey)"
  },
  "Rousse": {
    "locations": "Rousse",
    "value": "La Rousse"
  },
  "Gripe_Rousse": {
    "locations": "Gripe_Rousse",
    "value": "La Gripe de Rousse"
  },
  "Rousse_Mer": {
    "locations": "Rousse_Mer",
    "value": "Les roches de la Rousse de Mer (Guernesey)"
  },
  "Ruau_Grand": {
    "locations": "Ruau_Grand",
    "value": "Ruau (Grand - Guernesey)"
  },
  "Ruau_Petit": {
    "locations": "Ruau_Petit",
    "value": "Ruau (Petit - Guernesey)"
  },
  "Sablonneuse": {
    "locations": "Sablonneuse",
    "value": "La Sablonneuse (Guernesey)"
  },
  "Saint_Pierre_du_Bois_Clocher": {
    "locations": "Saint_Pierre_du_Bois_Clocher",
    "value": "Clocher de Saint-Pierre-du-Bois"
  },
  "Saint_Andre": {
    "locations": "Saint_Andre",
    "value": "Saint-André (échelle - Guernesey)"
  },
  "Saint_Asaph": {
    "locations": "Saint_Asaph",
    "value": "Saint-Asaph"
  },
  "Saint_Aubin": {
    "locations": "Saint_Aubin",
    "value": "Saint-Aubin (Jersey)"
  },
  "Saint_Brelade": {
    "locations": "Saint_Brelade Saint_Brelade_Eglise",
    "value": "Saint-Brelade (Jersey)"
  },
  "Saint_Brelade_Eglise": {
    "locations": "Saint_Brelade_Eglise",
    "value": "Saint-Brelade  > Saint-Brelade (Jersey- église)"
  },
  "Saint-Brieuc": {
    "locations": "Saint-Brieuc",
    "value": "Saint-Brieuc"
  },
  "Saint_Clement": {
    "locations": "Saint_Clement",
    "value": "Saint-Clément (rue des Alleurs – Jersey)"
  },
  "Saint_Enogat": {
    "locations": "Saint_Enogat",
    "value": "Saint-Énogat"
  },
  "Saint_Georges_Fontaine": {
    "locations": "Saint_Georges_Fontaine",
    "value": "Fontaine Saint-Georges (Guernesey)"
  },
  "Saint_Helier": {
    "locations": "Saint_Helier",
    "value": "Saint-Hélier"
  },
  "Saint_Jacques": {
    "locations": "Saint_Jacques",
    "value": "Saint-Jacques (Ferme Monplaisir – Guernesey)"
  },
  "Saint_Lunaire": {
    "locations": "Saint_Lunaire",
    "value": "Saint-Lunaire"
  },
  "Saint_Malo": {
    "locations": "Saint_Malo Bey_Petit Saint_Vincent_Porte Saint_Vincent_Rue Auberge_Jean Coutanchez_Ruelle Decolle_Pointe Dinan_Porte Jacressarde Talard_Grand Talard_Petit",
    "value": "Saint-Malo"
  },
  "Auberge_Jean": {
    "locations": "Auberge_Jean",
    "value": "Saint-Malo > Auberge Jean (Saint-Malo)"
  },
  "Bey_Petit": {
    "locations": "Bey_Petit",
    "value": "Saint-Malo > Petit Bey (Saint-Malo)"
  },
  "Coutanchez_Ruelle": {
    "locations": "Coutanchez_Ruelle",
    "value": "Saint-Malo > Ruelle Coutanchez (Saint-Malo)"
  },
  "Decolle_Pointe": {
    "locations": "Decolle_Pointe",
    "value": "Saint-Malo > Pointe du Décollé (Saint-Malo)"
  },
  "Dinan_Porte": {
    "locations": "Dinan_Porte",
    "value": "Saint-Malo > Porte Dinan (Saint-Malo)"
  },
  "Jacressarde": {
    "locations": "Jacressarde",
    "value": "Saint-Malo > La Jacressarde (Saint-Malo)"
  },
  "Saint_Vincent_Porte": {
    "locations": "Saint_Vincent_Porte",
    "value": "Saint-Malo > Porte Saint-Vincent (Saint-Malo)"
  },
  "Saint_Vincent_Rue": {
    "locations": "Saint_Vincent_Rue",
    "value": "Saint-Malo > Rue Saint-Vincent (Saint-Malo)"
  },
  "Talard_Grand": {
    "locations": "Talard_Grand",
    "value": "Saint-Malo > Grand Talard (Saint-Malo)"
  },
  "Talard_Petit": {
    "locations": "Talard_Petit",
    "value": "Saint-Malo > Petit Talard (Saint-Malo)"
  },
  "Saint_Martin": {
    "locations": "Saint_Martin",
    "value": "Saint-Martin (paroisse de Guernesey)"
  },
  "Saint_Ouen": {
    "locations": "Saint_Ouen",
    "value": "Saint-Ouen (Jersey)"
  },
  "Saint_Pierre_du_Bois": {
    "locations": "Saint_Pierre_du_Bois",
    "value": "Saint-Pierre-du-Bois"
  },
  "Saint_Pierre_Port": {
    "locations": "Saint_Pierre_Port Arcades Bordage Castle_Carey Hyvreuse La_Falue SPP_Cimetiere SPP_College_Rue SPP_Eglise SPP_Esplanade SPP_Forges_Rue SPP_Grande_Place SPP_Grand_Rue SPP_Hauteville SPP_Marche SPP_Mill_Street SPP_Palais_Justice SPP_Paroisse SPP_Port SPP_Rohais SPP_Salerie SPP_Vieux_Havre Tour_Victoria",
    "value": "Saint-Pierre-Port"
  },
  "Arcades": {
    "locations": "Arcades",
    "value": "Saint-Pierre-Port > Bazar Les Arcades (SPP) = Commercial Arcade"
  },
  "Bordage": {
    "locations": "Bordage",
    "value": "Saint-Pierre-Port > Le Bordage (SPP)"
  },
  "Castle_Carey": {
    "locations": "Castle_Carey",
    "value": "Saint-Pierre-Port > Castle Carey (SPP)"
  },
  "SPP_Cimetiere": {
    "locations": "SPP_Cimetiere",
    "value": "Saint-Pierre-Port > Cimetière (SPP)"
  },
  "SPP_College_Rue": {
    "locations": "SPP_College_Rue",
    "value": "Saint-Pierre-Port > Rue du collège (SPP)"
  },
  "SPP_Eglise": {
    "locations": "SPP_Eglise",
    "value": "Saint-Pierre-Port > Église (SPP)"
  },
  "SPP_Esplanade": {
    "locations": "SPP_Esplanade",
    "value": "Saint-Pierre-Port > L’Esplanade (SPP)"
  },
  "La_Falue": {
    "locations": "La_Falue",
    "value": "Saint-Pierre-Port > La Falue (SPP)"
  },
  "SPP_Forges_Rue": {
    "locations": "SPP_Forges_Rue",
    "value": "Saint-Pierre-Port > Rue des Forges (SPP) = Smith-Street"
  },
  "SPP_Grand_Rue": {
    "locations": "SPP_Grand_Rue",
    "value": "Saint-Pierre-Port > Grand’Rue (SPP) = High Street"
  },
  "SPP_Hauteville": {
    "locations": "SPP_Hauteville",
    "value": "Saint-Pierre-Port > Hauteville (SPP)"
  },
  "SPP_Vieux_Havre": {
    "locations": "SPP_Vieux_Havre",
    "value": "Saint-Pierre-Port > Vieux Havre (SPP)"
  },
  "Hyvreuse": {
    "locations": "Hyvreuse",
    "value": "Saint-Pierre-Port > L’Hyvreuse (SPP) = Cambridge-Park"
  },
  "SPP_Marche": {
    "locations": "SPP_Marche",
    "value": "Saint-Pierre-Port > Marché (SPP)"
  },
  "SPP_Mill_Street": {
    "locations": "SPP_Mill_Street",
    "value": "Saint-Pierre-Port > Mill Street (SPP)"
  },
  "SPP_Palais_Justice": {
    "locations": "SPP_Palais_Justice",
    "value": "Saint-Pierre-Port > Palais de justice SPP"
  },
  "SPP_Paroisse": {
    "locations": "SPP_Paroisse",
    "value": "Saint-Pierre-Port > Paroisse (SPP)"
  },
  "SPP_Grande_Place": {
    "locations": "SPP_Grande_Place",
    "value": "Saint-Pierre-Port > Grande place (SPP)"
  },
  "SPP_Port": {
    "locations": "SPP_Port",
    "value": "Saint-Pierre-Port > Port (SPP) = Havre"
  },
  "SPP_Rohais": {
    "locations": "SPP_Rohais",
    "value": "Saint-Pierre-Port > Les Rohais (SPP)"
  },
  "SPP_Salerie": {
    "locations": "SPP_Salerie",
    "value": "Saint-Pierre-Port > La Salerie (SPP) ?"
  },
  "Tour_Victoria": {
    "locations": "Tour_Victoria",
    "value": "Saint-Pierre-Port > Tour Victoria (SPP)"
  },
  "Saints_Baie": {
    "locations": "Saints_Baie",
    "value": "Baie des Saints"
  },
  "Saint_Sampson": {
    "locations": "Saint_Sampson Saint_Sampson_Abreuveurs Saint_Sampson_Bravees Saint_Sampson_Cloche_Port Saint_Sampson_Clocher Saint_Sampson_Eglise Saint_Sampson_Goulet Saint_Sampson_Port Saint_Sampson_Presbytere Saint_Sampson_Quai Saint_Sampson_Route",
    "value": "Saint-Sampson"
  },
  "Saint_Sampson_Quai": {
    "locations": "Saint_Sampson_Quai",
    "value": "Saint-Sampson > Quai de Saint-Sampson"
  },
  "Saint_Sampson_Abreuveurs": {
    "locations": "Saint_Sampson_Abreuveurs",
    "value": "Saint-Sampson > Les Abreuveurs (Saint-Sampson)"
  },
  "Saint_Sampson_Cloche_Port": {
    "locations": "Saint_Sampson_Cloche_Port",
    "value": "Saint-Sampson > Cloche du Port de Saint-Sampson"
  },
  "Saint_Sampson_Clocher": {
    "locations": "Saint_Sampson_Clocher",
    "value": "Saint-Sampson > Vieux clocher roman couvert de lierre (Saint-Sampson)"
  },
  "Saint_Sampson_Eglise": {
    "locations": "Saint_Sampson_Eglise",
    "value": "Saint-Sampson > Église de Saint-Sampson"
  },
  "Saint_Sampson_Bravees": {
    "locations": "Saint_Sampson_Bravees",
    "value": "Saint-Sampson > Les Bravées (Saint-Sampson)"
  },
  "Saint_Sampson_Port": {
    "locations": "Saint_Sampson_Port",
    "value": "Saint-Sampson > Port de Saint-Sampson"
  },
  "Saint_Sampson_Presbytere": {
    "locations": "Saint_Sampson_Presbytere",
    "value": "Saint-Sampson > III,I,2-583 (presbytère) x2"
  },
  "Saint_Sampson_Route": {
    "locations": "Saint_Sampson_Route",
    "value": "Saint-Sampson > Route de Saint-Sampson"
  },
  "Saint_Sampson_Goulet": {
    "locations": "Saint_Sampson_Goulet",
    "value": "Saint-Sampson > Goulet de Saint-Sampson"
  },
  "Saint_Sauveur": {
    "locations": "Saint_Sauveur",
    "value": "Saint-Sauveur"
  },
  "Saint_Servan": {
    "locations": "Saint_Servan",
    "value": "Saint-Servan"
  },
  "Saint_Valery_sur_Somme": {
    "locations": "Saint_Valery_sur_Somme",
    "value": "Saint-Valery-sur-Somme"
  },
  "Saline_Bay": {
    "locations": "Saline_Bay",
    "value": "Saline Bay"
  },
  "Salterns": {
    "locations": "Salterns",
    "value": "Salterns (Guernesey)"
  },
  "Sambule": {
    "locations": "Sambule",
    "value": "La Sambule (Guernesey)"
  },
  "Sauts_Roquiers": {
    "locations": "Sauts_Roquiers",
    "value": "Sauts Roquiers (Guernesey)"
  },
  "Sauvages": {
    "locations": "Sauvages",
    "value": "Les Sauvages"
  },
  "Sergentee": {
    "locations": "Sergentee",
    "value": "La Sergentée (Guernesey)"
  },
  "Serk": {
    "locations": "Serk",
    "value": "Serk"
  },
  "Silleuse": {
    "locations": "Silleuse",
    "value": "La Silleuse (Guernesey)"
  },
  "Sommeilleuse": {
    "locations": "Sommeilleuse",
    "value": "La Sommeilleuse (Guernesey)"
  },
  "Souffleresse": {
    "locations": "Souffleresse",
    "value": "La Souffleresse (Guernesey)"
  },
  "Southampton": {
    "locations": "Southampton",
    "value": "Southampton"
  },
  "Boue_South": {
    "locations": "Boue_South",
    "value": "La South-Boue"
  },
  "Chouas": {
    "locations": "Chouas",
    "value": "La Suarde ou Les Chouas"
  },
  "Suzanne": {
    "locations": "Suzanne",
    "value": "La Suzanne (Guernesey)"
  },
  "Tamise": {
    "locations": "Tamise",
    "value": "Tamise"
  },
  "Tancarville": {
    "locations": "Tancarville",
    "value": "Tancarville"
  },
  "Tangroville": {
    "locations": "Tangroville",
    "value": "Tangroville"
  },
  "Tas_Pois_Aval": {
    "locations": "Tas_Pois_Aval",
    "value": "Le Tas de Pois d’Aval (ou Tau)"
  },
  "Tau_Pez_Amont": {
    "locations": "Tau_Pez_Amont",
    "value": "Le Tau de Pez d’Amont"
  },
  "Thouars": {
    "locations": "Thouars",
    "value": "Thouars"
  },
  "Tielles": {
    "locations": "Tielles",
    "value": "Le Tielles (Guernesey)"
  },
  "Tor_Bay": {
    "locations": "Tor_Bay",
    "value": "Tor Bay"
  },
  "Torteval": {
    "locations": "Torteval",
    "value": "Torteval (Guernesey)"
  },
  "Tour_Eree": {
    "locations": "Tour_Eree",
    "value": "La Tour Érée (vis-à-vis de Lihou)"
  },
  "Treport": {
    "locations": "Treport",
    "value": "Tréport"
  },
  "Trouville": {
    "locations": "Trouville",
    "value": "Trouville"
  },
  "Valle_Chateau": {
    "locations": "Valle_Chateau",
    "value": "Château du Valle ou Château de l’Archange ou Château de Michel-Archange (Guernesey)"
  },
  "Valle": {
    "locations": "Valle",
    "value": "Le Valle (Guernesey)"
  },
  "Valognes": {
    "locations": "Valognes",
    "value": "Valognes"
  },
  "Varclin": {
    "locations": "Varclin",
    "value": "Forge du Varclin (Guernesey)"
  },
  "Vason_Baie": {
    "locations": "Vason_Baie",
    "value": "Baie Vason (Vazon Bay Guernesey)"
  },
  "Vaudue": {
    "locations": "Vaudue",
    "value": "Carrière de la Vaudue (Guernesey)"
  },
  "Videclins_Route": {
    "locations": "Videclins_Route",
    "value": "Route des Videclins (Guernesey)"
  },
  "Ville_au_Roi": {
    "locations": "Ville_au_Roi",
    "value": "La Ville-au-Roi (Guernesey)"
  },
  "Ville_Baudue": {
    "locations": "Ville_Baudue",
    "value": "Carrière de la Ville-Baudue (Guernesey)"
  },
  "Wales": {
    "locations": "Wales",
    "value": "Pays de Galles"
  },
  "Weymouth": {
    "locations": "Weymouth",
    "value": "Weymouth"
  },
  "Winchester": {
    "locations": "Winchester",
    "value": "Winchester"
  },
  "Zuydersee": {
    "locations": "Zuydersee",
    "value": "Zuydersée"
  }}
