<?xml version="1.0" encoding="UTF-8"?>
<?xml-stylesheet href='../../../assets/css/svg.css'?>
<svg xmlns:xlink="http://www.w3.org/1999/xlink" xmlns="http://www.w3.org/2000/svg"
     width="1009"
     height="1536"
     viewBox="0 0 1009 1536">
   <image xlink:href="../../thumbnails/NAF_13460-82v.jpg" width="1009" height="1536"/>
   <g class="location location-hidden" data-location="Ancresse">
      <title>Ancresse (L’)</title>
      <rect width="187" height="58" x="403" y="203"/>
   </g>
   <g class="location location-hidden" data-location="B_13">
      <title>Balise Les Plattes Fougères</title>
      <rect width="181" height="60" x="743" y="106"/>
   </g>
   <g class="location location-hidden" data-location="Boue_Corneille">
      <title>Boue-Corneille </title>
      <rect width="170" height="98" x="109" y="370"/>
   </g>
   <g class="location location-hidden" data-location="Boue_Vason">
      <title>Boue Vason</title>
      <rect width="103" height="117" x="57" y="714"/>
   </g>
   <g class="location location-hidden" data-location="Boues_Fosse">
      <title>Boues de la Fosse</title>
      <rect width="161" height="69" x="150" y="224"/>
   </g>
   <g class="location location-hidden" data-location="Braye_Grande">
      <title>Braye (Grande)</title>
      <rect width="253" height="53" x="664" y="34"/>
   </g>
   <g class="location location-hidden" data-location="Braye_Petite">
      <title>Braye (Petite)</title>
      <rect width="253" height="63" x="672" y="73"/>
   </g>
   <g class="location location-hidden" data-location="Brecqhou">
      <title>Brecqhou </title>
      <rect width="126" height="296" x="640" y="713"/>
   </g>
   <g class="location location-hidden" data-location="Catel">
      <title>Catel (Le)</title>
      <rect width="228" height="148" x="326" y="653"/>
   </g>
   <g class="location location-hidden" data-location="Cobo_Bay">
      <title>Cobo-Bay </title>
      <rect width="152" height="83" x="237" y="697"/>
   </g>
   <g class="location location-hidden" data-location="Cromlech">
      <title>Cromlech</title>
      <rect width="146" height="73" x="387" y="417"/>
   </g>
   <g class="location location-hidden" data-location="Deux_Brayes">
      <title>Deux Brayes (Les) </title>
      <rect width="259" height="108" x="664" y="29"/>
   </g>
   <g class="location location-hidden" data-location="Ecrehou">
      <title>Ecréhou </title>
      <rect width="82" height="330" x="757" y="687"/>
   </g>
   <g class="location location-hidden" data-location="Equerrier">
      <title>Équerrier (L’) </title>
      <rect width="138" height="59" x="203" y="1091"/>
   </g>
   <g class="location location-hidden" data-location="Fontenelle_Demie">
      <title>Fontenelle (La Demie de)</title>
      <rect width="147" height="118" x="596" y="216"/>
   </g>
   <g class="location location-hidden" data-location="Fruquiers">
      <title>Fruquiers (Les)</title>
      <rect width="160" height="71" x="59" y="179"/>
   </g>
   <g class="location location-hidden" data-location="Gripe_Rousse">
      <title>Rousse (La Gripe de)</title>
      <rect width="237" height="87" x="87" y="319"/>
   </g>
   <g class="location location-hidden" data-location="Grune_Pierre">
      <title>Grune Pierre</title>
      <rect width="189" height="61" x="737" y="153"/>
   </g>
   <g class="location location-hidden" data-location="Grunettes">
      <title>Grunettes (Les)</title>
      <rect width="139" height="81" x="60" y="635"/>
   </g>
   <g class="location location-hidden" data-location="Hanois">
      <title>Hanois (Les)</title>
      <rect width="150" height="64" x="86" y="1410"/>
   </g>
   <g class="location location-hidden" data-location="Houmet_Paradis">
      <title>Houmet-Paradis</title>
      <rect width="227" height="86" x="700" y="317"/>
   </g>
   <g class="location location-hidden" data-location="Jet_Hou">
      <title>Jet-Hou</title>
      <rect width="100" height="304" x="590" y="716"/>
   </g>
   <g class="location location-hidden" data-location="Lemarchand_Fort">
      <title>Lemarchand (Fort)</title>
      <rect width="118" height="137" x="473" y="253"/>
   </g>
   <g class="location location-hidden" data-location="Li_Hou">
      <title>Li-Hou </title>
      <rect width="83" height="304" x="508" y="729"/>
   </g>
   <g class="location location-hidden" data-location="Li_Hou">
      <title>Li-Hou </title>
      <rect width="110" height="85" x="560" y="1136"/>
   </g>
   <g class="location location-hidden" data-location="Li_Hou">
      <title>Li-Hou </title>
      <rect width="101" height="99" x="63" y="1201"/>
   </g>
   <g class="location location-hidden" data-location="Maison_visionnee">
      <title>Maison visionnée</title>
      <rect width="166" height="70" x="320" y="1350"/>
   </g>
   <g class="location location-hidden" data-location="Mouliere">
      <title>Moulière (La)</title>
      <rect width="174" height="61" x="753" y="212"/>
   </g>
   <g class="location location-hidden" data-location="Noirmont">
      <title>Noirmont</title>
      <rect width="143" height="70" x="367" y="494"/>
   </g>
   <g class="location location-hidden" data-location="Perrelle_Bay">
      <title>Perrelle-Bay </title>
      <rect width="187" height="83" x="153" y="1010"/>
   </g>
   <g class="location location-hidden" data-location="Plainmont">
      <title>Plainmont</title>
      <rect width="197" height="115" x="287" y="1340"/>
   </g>
   <g class="location location-hidden" data-location="Port_Enfer">
      <title>Port-Enfer </title>
      <rect width="126" height="80" x="231" y="570"/>
   </g>
   <g class="location location-hidden" data-location="Port_Soif">
      <title>Port-Soif </title>
      <rect width="117" height="80" x="197" y="649"/>
   </g>
   <g class="location location-hidden" data-location="Rocquaine">
      <title>Rocquaine (La)</title>
      <rect width="156" height="86" x="157" y="1321"/>
   </g>
   <g class="location location-hidden" data-location="Roque_Noire">
      <title>Roque Noire</title>
      <rect width="149" height="107" x="145" y="412"/>
   </g>
   <g class="location location-hidden" data-location="Rousse_Mer">
      <title>Rousse de Mer (roches de la)</title>
      <rect width="209" height="67" x="111" y="276"/>
   </g>
   <g class="location location-hidden" data-location="Sablonneuse">
      <title>Sablonneuse (La) </title>
      <rect width="213" height="66" x="443" y="120"/>
   </g>
   <g class="location location-hidden" data-location="Saint_Sampson">
      <title>Saint-Sampson</title>
      <rect width="183" height="63" x="717" y="388"/>
   </g>
   <g class="location location-hidden" data-location="Sauts_Roquiers">
      <title>Sauts Roquiers </title>
      <rect width="179" height="120" x="60" y="527"/>
   </g>
   <g class="location location-hidden" data-location="Silleuse">
      <title>Silleuse (La) </title>
      <rect width="125" height="57" x="301" y="170"/>
   </g>
   <g class="location location-hidden" data-location="Torteval">
      <title>Torteval</title>
      <rect width="181" height="90" x="509" y="1313"/>
   </g>
   <g class="location location-hidden" data-location="Tour_Eree">
      <title>Tour Érée</title>
      <rect width="213" height="109" x="196" y="1180"/>
   </g>
   <g class="location location-hidden" data-location="Vason_Baie">
      <title>Vason (Baie)</title>
      <rect width="90" height="107" x="189" y="774"/>
   </g>
</svg>