<?xml version="1.0" encoding="UTF-8"?>
<?xml-stylesheet href='../../../assets/css/svg.css'?>
<svg xmlns:xlink="http://www.w3.org/1999/xlink" xmlns="http://www.w3.org/2000/svg"
     width="1536"
     height="994"
     viewBox="0 0 1536 994">
   <image xlink:href="../../thumbnails/NAF_13460_10.jpg" width="1536" height="994"/>
   <g class="location location-hidden" data-location="B_01">
      <title>Balise Le Creux</title>
      <rect width="140" height="194" x="372" y="362"/>
   </g>
   <g class="location location-hidden" data-location="B_02">
      <title>Balise L’Alligande</title>
      <rect width="172" height="176" x="502" y="354"/>
   </g>
   <g class="location location-hidden" data-location="B_03">
      <title>Balise Les Trémies</title>
      <rect width="128" height="236" x="570" y="584"/>
   </g>
   <g class="location location-hidden" data-location="B_04">
      <title>Balise La Sardrette</title>
      <rect width="148" height="244" x="394" y="584"/>
   </g>
   <g class="location location-hidden" data-location="B_05">
      <title>Balise L’Anfré</title>
      <rect width="122" height="256" x="868" y="596"/>
   </g>
   <g class="location location-hidden" data-location="B_06">
      <title>Balise La Rousse</title>
      <rect width="180" height="208" x="196" y="368"/>
   </g>
   <g class="location location-hidden" data-location="B_08">
      <title>Balise Longue-Pierre</title>
      <rect width="234" height="210" x="1022" y="584"/>
   </g>
   <g class="location location-hidden" data-location="B_09">
      <title>Balise Le Goubeau</title>
      <rect width="176" height="264" x="200" y="582"/>
   </g>
   <g class="location location-hidden" data-location="B_10">
      <title>Balise La Platte</title>
      <rect width="132" height="224" x="878" y="354"/>
   </g>
   <g class="location location-hidden" data-location="B_11">
      <title>Balise Les Barbées</title>
      <rect width="190" height="250" x="640" y="332"/>
   </g>
   <g class="location location-hidden" data-location="B_12">
      <title>Balise Le Moulinet</title>
      <rect width="148" height="214" x="706" y="590"/>
   </g>
   <g class="location location-hidden" data-location="B_13">
      <title>Balise Les Plattes Fougères</title>
      <rect width="300" height="288" x="1178" y="398"/>
   </g>
   <g class="location location-hidden" data-location="B_14">
      <title>Balise Saint-Sampson</title>
      <rect width="160" height="262" x="1042" y="338"/>
   </g>
   <g class="location location-hidden" data-location="Dicart_Cap">
      <title>Cap Dicart</title>
      <rect width="156" height="52" x="1132" y="70"/>
   </g>
   <g class="location location-hidden" data-location="Hanois">
      <title>Hanois (Les)</title>
      <rect width="556" height="170" x="788" y="176"/>
   </g>
   <g class="location location-hidden" data-location="Valle_Chateau">
      <title>Valle (Château du)</title>
      <rect width="260" height="60" x="1152" y="110"/>
   </g>
   <g class="location location-hidden" data-location="Plainmont">
      <title>Plainmont</title>
      <rect width="690" height="222" x="88" y="106"/>
   </g>
</svg>