<?xml version="1.0" encoding="UTF-8"?>
<?xml-stylesheet href='../../../assets/css/svg.css'?>
<svg xmlns:xlink="http://www.w3.org/1999/xlink" xmlns="http://www.w3.org/2000/svg"
     width="987"
     height="1536"
     viewBox="0 0 987 1536">
   <image xlink:href="../../thumbnails/NAF_13459_22V.jpg" width="987" height="1536"/>
   <g class="location location-hidden" data-location="Catiau_Roque">
      <title>Catiau-Roque (La)</title>
      <rect width="430" height="134" x="230" y="312"/>
   </g>
</svg>