<?xml version="1.0" encoding="UTF-8"?>
<?xml-stylesheet href='../../../assets/css/svg.css'?>
<svg xmlns:xlink="http://www.w3.org/1999/xlink" xmlns="http://www.w3.org/2000/svg"
     width="1024"
     height="1251"
     viewBox="0 0 1024 1251">
   <image xlink:href="../../thumbnails/" width="1024" height="1251"/>
   <g class="location location-hidden" data-location="Bu_de_la_rue">
      <title>Bû de la Rue</title>
      <rect width="181" height="133" x="257" y="568"/>
   </g>
   <g class="location location-hidden" data-location="Douvres">
      <title>Douvres</title>
      <rect width="151" height="212" x="561" y="555"/>
   </g>
</svg>