<?xml version="1.0" encoding="UTF-8"?>
<?xml-stylesheet href='../../../assets/css/svg.css'?>
<svg xmlns:xlink="http://www.w3.org/1999/xlink" xmlns="http://www.w3.org/2000/svg"
     width="1537"
     height="1010"
     viewBox="0 0 1537 1010">
   <image xlink:href="../../thumbnails/NAF_13460_9v.jpg" width="1537" height="1010"/>
   <g class="location location-hidden" data-location="Brecqhou">
      <title>Brecqhou </title>
      <rect width="144" height="574" x="312" y="46"/>
   </g>
   <g class="location location-hidden" data-location="Jet_Hou">
      <title>Jet-Hou</title>
      <rect width="90" height="510" x="210" y="126"/>
   </g>
   <g class="location location-hidden" data-location="Li_Hou">
      <title>Li-Hou </title>
      <rect width="98" height="510" x="118" y="130"/>
   </g>
</svg>